PCBNEW-LibModule-V1  2023-03-28 19:50:58
# encoding utf-8
Units mm
$INDEX
DIP787W58P254L1930H508Q16N
$EndINDEX
$MODULE DIP787W58P254L1930H508Q16N
Po 0 0 0 15 64233712 00000000 ~~
Li DIP787W58P254L1930H508Q16N
Cd N16E
Kw Integrated Circuit
Sc 0
At STD
AR 
Op 0 0 0
T0 0 0 1.27 1.27 0 0.254 N V 21 N "IC**"
T1 0 0 1.27 1.27 0 0.254 N I 21 N "DIP787W58P254L1930H508Q16N"
DS -4.906 -10.155 4.906 -10.155 0.05 24
DS 4.906 -10.155 4.906 10.155 0.05 24
DS 4.906 10.155 -4.906 10.155 0.05 24
DS -4.906 10.155 -4.906 -10.155 0.05 24
DS -3.302 -9.905 3.302 -9.905 0.1 24
DS 3.302 -9.905 3.302 9.905 0.1 24
DS 3.302 9.905 -3.302 9.905 0.1 24
DS -3.302 9.905 -3.302 -9.905 0.1 24
DS -3.302 -8.635 -2.032 -9.905 0.1 24
DS -4.529 -9.905 3.302 -9.905 0.2 21
DS -3.302 9.905 3.302 9.905 0.2 21
$PAD
Po -3.937 -8.89
Sh "1" R 1.184 1.184 0 0 900
Dr 0.784 0 0
At STD N 00E0FFFF
Ne 0 ""
$EndPAD
$PAD
Po -3.937 -6.35
Sh "2" C 1.184 1.184 0 0 900
Dr 0.784 0 0
At STD N 00E0FFFF
Ne 0 ""
$EndPAD
$PAD
Po -3.937 -3.81
Sh "3" C 1.184 1.184 0 0 900
Dr 0.784 0 0
At STD N 00E0FFFF
Ne 0 ""
$EndPAD
$PAD
Po -3.937 -1.27
Sh "4" C 1.184 1.184 0 0 900
Dr 0.784 0 0
At STD N 00E0FFFF
Ne 0 ""
$EndPAD
$PAD
Po -3.937 1.27
Sh "5" C 1.184 1.184 0 0 900
Dr 0.784 0 0
At STD N 00E0FFFF
Ne 0 ""
$EndPAD
$PAD
Po -3.937 3.81
Sh "6" C 1.184 1.184 0 0 900
Dr 0.784 0 0
At STD N 00E0FFFF
Ne 0 ""
$EndPAD
$PAD
Po -3.937 6.35
Sh "7" C 1.184 1.184 0 0 900
Dr 0.784 0 0
At STD N 00E0FFFF
Ne 0 ""
$EndPAD
$PAD
Po -3.937 8.89
Sh "8" C 1.184 1.184 0 0 900
Dr 0.784 0 0
At STD N 00E0FFFF
Ne 0 ""
$EndPAD
$PAD
Po 3.937 8.89
Sh "9" C 1.184 1.184 0 0 900
Dr 0.784 0 0
At STD N 00E0FFFF
Ne 0 ""
$EndPAD
$PAD
Po 3.937 6.35
Sh "10" C 1.184 1.184 0 0 900
Dr 0.784 0 0
At STD N 00E0FFFF
Ne 0 ""
$EndPAD
$PAD
Po 3.937 3.81
Sh "11" C 1.184 1.184 0 0 900
Dr 0.784 0 0
At STD N 00E0FFFF
Ne 0 ""
$EndPAD
$PAD
Po 3.937 1.27
Sh "12" C 1.184 1.184 0 0 900
Dr 0.784 0 0
At STD N 00E0FFFF
Ne 0 ""
$EndPAD
$PAD
Po 3.937 -1.27
Sh "13" C 1.184 1.184 0 0 900
Dr 0.784 0 0
At STD N 00E0FFFF
Ne 0 ""
$EndPAD
$PAD
Po 3.937 -3.81
Sh "14" C 1.184 1.184 0 0 900
Dr 0.784 0 0
At STD N 00E0FFFF
Ne 0 ""
$EndPAD
$PAD
Po 3.937 -6.35
Sh "15" C 1.184 1.184 0 0 900
Dr 0.784 0 0
At STD N 00E0FFFF
Ne 0 ""
$EndPAD
$PAD
Po 3.937 -8.89
Sh "16" C 1.184 1.184 0 0 900
Dr 0.784 0 0
At STD N 00E0FFFF
Ne 0 ""
$EndPAD
$EndMODULE DIP787W58P254L1930H508Q16N
$EndLIBRARY
