(module "DIP787W58P254L1930H508Q16N" (layer F.Cu)
  (descr "N16E")
  (tags "Integrated Circuit")
  (fp_text reference IC** (at 0 0) (layer F.SilkS)
    (effects (font (size 1.27 1.27) (thickness 0.254)))
  )
  (fp_text user %R (at 0 0) (layer F.Fab)
    (effects (font (size 1.27 1.27) (thickness 0.254)))
  )
  (fp_text value "DIP787W58P254L1930H508Q16N" (at 0 0) (layer F.SilkS) hide
    (effects (font (size 1.27 1.27) (thickness 0.254)))
  )
  (fp_line (start -4.906 -10.155) (end 4.906 -10.155) (layer F.CrtYd) (width 0.05))
  (fp_line (start 4.906 -10.155) (end 4.906 10.155) (layer F.CrtYd) (width 0.05))
  (fp_line (start 4.906 10.155) (end -4.906 10.155) (layer F.CrtYd) (width 0.05))
  (fp_line (start -4.906 10.155) (end -4.906 -10.155) (layer F.CrtYd) (width 0.05))
  (fp_line (start -3.302 -9.905) (end 3.302 -9.905) (layer F.Fab) (width 0.1))
  (fp_line (start 3.302 -9.905) (end 3.302 9.905) (layer F.Fab) (width 0.1))
  (fp_line (start 3.302 9.905) (end -3.302 9.905) (layer F.Fab) (width 0.1))
  (fp_line (start -3.302 9.905) (end -3.302 -9.905) (layer F.Fab) (width 0.1))
  (fp_line (start -3.302 -8.635) (end -2.032 -9.905) (layer F.Fab) (width 0.1))
  (fp_line (start -4.529 -9.905) (end 3.302 -9.905) (layer F.SilkS) (width 0.2))
  (fp_line (start -3.302 9.905) (end 3.302 9.905) (layer F.SilkS) (width 0.2))
  (pad 1 thru_hole rect (at -3.937 -8.89) (size 1.184 1.184) (drill 0.784) (layers *.Cu *.Mask))
  (pad 2 thru_hole circle (at -3.937 -6.35) (size 1.184 1.184) (drill 0.784) (layers *.Cu *.Mask))
  (pad 3 thru_hole circle (at -3.937 -3.81) (size 1.184 1.184) (drill 0.784) (layers *.Cu *.Mask))
  (pad 4 thru_hole circle (at -3.937 -1.27) (size 1.184 1.184) (drill 0.784) (layers *.Cu *.Mask))
  (pad 5 thru_hole circle (at -3.937 1.27) (size 1.184 1.184) (drill 0.784) (layers *.Cu *.Mask))
  (pad 6 thru_hole circle (at -3.937 3.81) (size 1.184 1.184) (drill 0.784) (layers *.Cu *.Mask))
  (pad 7 thru_hole circle (at -3.937 6.35) (size 1.184 1.184) (drill 0.784) (layers *.Cu *.Mask))
  (pad 8 thru_hole circle (at -3.937 8.89) (size 1.184 1.184) (drill 0.784) (layers *.Cu *.Mask))
  (pad 9 thru_hole circle (at 3.937 8.89) (size 1.184 1.184) (drill 0.784) (layers *.Cu *.Mask))
  (pad 10 thru_hole circle (at 3.937 6.35) (size 1.184 1.184) (drill 0.784) (layers *.Cu *.Mask))
  (pad 11 thru_hole circle (at 3.937 3.81) (size 1.184 1.184) (drill 0.784) (layers *.Cu *.Mask))
  (pad 12 thru_hole circle (at 3.937 1.27) (size 1.184 1.184) (drill 0.784) (layers *.Cu *.Mask))
  (pad 13 thru_hole circle (at 3.937 -1.27) (size 1.184 1.184) (drill 0.784) (layers *.Cu *.Mask))
  (pad 14 thru_hole circle (at 3.937 -3.81) (size 1.184 1.184) (drill 0.784) (layers *.Cu *.Mask))
  (pad 15 thru_hole circle (at 3.937 -6.35) (size 1.184 1.184) (drill 0.784) (layers *.Cu *.Mask))
  (pad 16 thru_hole circle (at 3.937 -8.89) (size 1.184 1.184) (drill 0.784) (layers *.Cu *.Mask))
  (model CD4060BCN.stp
    (at (xyz 0 0 0))
    (scale (xyz 1 1 1))
    (rotate (xyz 0 0 0))
  )
)
